{
  "api": { 
    "invokeUrl": "https://5bltcq602h.execute-api.us-west-2.amazonaws.com/prod"
  },
  "cognito": {
    "REGION": "us-est-1",
    "USER_POOL_ID": "us-east-1_tcNE4henj",
    "APP_CLIENT_ID": "4239gufef5sn7ohsqp0bcgevcr"
  } 
}